{
	"name": "Vimium C",
	"@time": "5/24/2022, 7:40:43 PM",
	"time": 1653414043534,
	"environment": {
		"extension": "1.98.0",
		"platform": "linux",
		"chrome": "102"
	},
	"exclusionRules": [],
	"keyMappings": [
		"#!no-check",
		"#unmapAll",
		"",
		"#map f LinkHints.activate",
		"#map F LinkHints.activateOpenInNewTab",
		"map gf LinkHints.activateOpenInNewForegroundTab",
		"map gF LinkHints.activateWithQueue",
		"",
		"map t scrollDown",
		"map s scrollUp",
		"map T scrollPageDown",
		"map S scrollPageUp",
		"map c scrollLeft",
		"map r scrollRight",
		"#map gg scrollToTop",
		"#map G scrollToBottom",
		"map gt scrollPxDown",
		"map gs scrollPxUp",
		"#map gc scrollPxLeft",
		"#map gr scrollPxRight",
		"",
		"map l reload",
		"map L reloadTab",
		"",
		"#map yy copyCurrentUrl",
		"#map yf LinkHints.activateCopyLinkUrl",
		"#map ai focusInput",
		"map yt copyCurrentTitle",
		"#map yT LinkHints.activateCopyLinkText",
		"",
		"#map p openCopiedUrlInCurrentTab",
		"#map P openCopiedUrlInNewTab",
		"",
		"#map au goUp",
		"#map aU goToRoot",
		"",
		"map dl LinkHints.activateDownloadImage",
		"",
		"map af LinkHints.activateOpenIncognito",
		"",
		"#map i enterInsertMode",
		"#map v enterVisualMode",
		"#map V enterVisualLineMode",
		"",
		"map ao focusOrLaunch",
		"",
		"#map o Vomnibar.activate",
		"#map O Vomnibar.activateInNewTab",
		"map b Vomnibar.activateBookmarks",
		"map B Vomnibar.activateBookmarksInNewTab",
		"map h Vomnibar.activateHistory",
		"map H Vomnibar.activateHistoryInNewTab",
		"map go Vomnibar.activateTabs",
		"map e Vomnibar.activateEditUrl",
		"map E Vomnibar.activateEditUrlInNewTab",
		"map ge LinkHints.activateOpenVomnibar",
		"map gE toggleVomnibarStyle",
		"",
		"#map / enterFindMode",
		"#map n performFind",
		"#map N performBackwardsFind",
		"map gn performAnotherFind",
		"map gN clearFindHistory",
		"",
		"map u goBack",
		"map gr goForward",
		"map U restoreTab",
		"map gU reopenTab",
		"map C previousTab",
		"map R nextTab",
		"map . duplicateTab",
		"#map x removeTab",
		"map X removeRightTab",
		"map gx closeTabsOnLeft",
		"map gX closeTabsOnRight",
		"map gp togglePinTab",
		"map gb closeDownloadBar",
		"map <c-s-c> moveTabLeft",
		"map <c-s-r> moveTabRight",
		"map \\ passNextKey",
		""
	],
	"linkHintCharacters": "etisurancmovpdqxg",
	"searchEngines": [
		"g|go|gg: https://www.google.com/search?q=%s \\",
		"  www.google.com re=/^(?:\\.[a-z]{2,4})?\\/search\\b.*?[#&?]q=([^#&]*)/i\\",
		"  blank=https://www.google.com/ Google",
		"b|br|brave: https://search.brave.com/search?q=%s Brave",
		"d|dd|ddg|duckduckgo: https://duckduckgo.com/?q=%s DuckDuckGo",
		"so|sh|sho: https://www.shodan.io/search?query=%s&ref=os Shodan",
		"",
		"gh|github: https://github.com/search?q=$s \\",
		"  blank=https://github.com/ GitHub",
		"gl|gitlab: https://gitlab.com/search?q=$s \\",
		"  blank=https://gitlab.com/ GitLab",
		"alt|al: https://alternativeto.net/browse/search?q=%s Alternative",
		"pkg: https://archlinux.org/packages/?q=%s ArchPackages",
		"",
		"m|gm|gmap: https://www.google.com/maps?q=%s \\",
		"  blank=https://www.google.com/maps GoogleMaps",
		"y|yt: https://www.youtube.com/results?search_query=%s \\",
		"  blank=https://www.youtube.com/ YouTube",
		"mdn: https://developer.mozilla.org/fr/search?q=%s MozillaDeveloperNetwork",
		"z|zlib: https://b-ok.cc/s/?q=%s ZLib",
		"",
		"w|wiki: https://www.wikipedia.org/w/index.php?search=%s Wikipedia",
		"aw|arw: https://wiki.archlinux.org/index.php?title=Special:Search&search=%s ArchWiki",
		"s|gs|gscholar: https://scholar.google.com/scholar?q=$s \\",
		"  scholar.google.com re=/^(?:\\.[a-z]{2,4})?\\/scholar\\b.*?[#&?]q=([^#&]*)/i\\",
		"  blank=https://scholar.google.com/ Google Scholar",
		"",
		"a|ae|ali|alie|aliexp: https://www.aliexpress.com/wholesale?SearchText=%s \\",
		"  blank=https://www.aliexpress.com/ AliExpress",
		"az|am|amazon: https://www.amazon.fr/s/?field-keywords=%s \\",
		"  blank=https://www.amazon.fr/ Amazon",
		"",
		"mt|mh|v\\:math: vimium://math\\ $S re= Calculate",
		"en: https://www.deepl.com/translator#fr/en/%s DeeplENtoFR",
		"ygg|tr: https://www3.yggtorrent.nz/engine/search?name=%s&do=search YGGTorrent",
		""
	],
	"searchUrl": "https://www.ecosia.com/search?q=$s Ecosia"
}
